{
    "count": 2,
    "next": "https://api.octopus.energy/v1/products/AGILE-24-10-01/electricity-tariffs/E-1R-AGILE-24-10-01-A/standing-charges/?page=2",
    "previous": null,
    "results": [
        {
            "value_exc_vat": 40.00,
            "value_inc_vat": 42.00,
            "valid_from": "2024-01-01T00:00:00Z",
            "valid_to": "2024-03-01T00:00:00Z"
        }
    ]
}
