{
    "count": 4,
    "next": "https://api.octopus.energy/v1/products/AGILE-24-10-01/electricity-tariffs/E-1R-AGILE-24-10-01-A/standard-unit-rates/?page=2",
    "previous": null,
    "results": [
        {
            "value_exc_vat": 17.0,
            "value_inc_vat": 17.85,
            "valid_from": "2024-01-15T23:30:00Z",
            "valid_to": "2024-01-16T00:00:00Z"
        },
        {
            "value_exc_vat": 18.0,
            "value_inc_vat": 18.90,
            "valid_from": "2024-01-16T00:00:00Z",
            "valid_to": "2024-01-16T00:30:00Z"
        }
    ]
}
